<?xml version="1.0" encoding="UTF-8"?>
<svg width="92px" height="87px" viewBox="0 0 92 87" version="1.1" xmlns="http://www.w3.org/2000/svg" xmlns:xlink="http://www.w3.org/1999/xlink">
    <!-- Generator: Sketch 61.2 (89653) - https://sketch.com -->
    <title>noun_Donate_1819862</title>
    <desc>Created with Sketch.</desc>
    <defs>
        <filter x="-16.7%" y="-30.3%" width="133.5%" height="160.6%" filterUnits="objectBoundingBox" id="filter-1">
            <feOffset dx="0" dy="10" in="SourceAlpha" result="shadowOffsetOuter1"></feOffset>
            <feGaussianBlur stdDeviation="15" in="shadowOffsetOuter1" result="shadowBlurOuter1"></feGaussianBlur>
            <feColorMatrix values="0 0 0 0 0   0 0 0 0 0   0 0 0 0 0  0 0 0 0.05 0" type="matrix" in="shadowBlurOuter1" result="shadowMatrixOuter1"></feColorMatrix>
            <feMerge>
                <feMergeNode in="shadowMatrixOuter1"></feMergeNode>
                <feMergeNode in="SourceGraphic"></feMergeNode>
            </feMerge>
        </filter>
    </defs>
    <g id="Landings" stroke="none" stroke-width="1" fill="none" fill-rule="evenodd">
        <g id="updates_page6" transform="translate(-731.000000, -2091.000000)" fill-rule="nonzero">
            <g id="contactContent" filter="url(#filter-1)" transform="translate(730.000000, 2080.000000)">
                <g id="noun_Donate_1819862" transform="translate(27.000000, 29.000000)">
                    <path d="M34.0876757,18.04 C33.3638443,18.04 33.1330177,18.2527338 33.1174534,18.9682639 L33.1165957,29.3506065 C33.1165957,30.0590591 33.2981657,30.3129887 33.8928614,30.3538803 L34.0876757,30.36 L35.5493557,30.36 C36.2731872,30.36 36.5040137,30.1472662 36.5195781,29.4321464 L36.5204357,19.0498511 C36.5204357,18.2966789 36.3154603,18.0570461 35.6277667,18.0408902 L34.0876757,18.04 Z" id="Shape" fill="#C2E5F8"></path>
                    <path d="M15.6978209,19.4483063 L15.4488357,19.44008 L12.4123957,19.31292 C10.9494494,19.2523932 9.79138823,20.1115475 9.69327502,21.1790386 L9.68703573,21.274 C9.64284873,22.349932 10.6874316,23.3271511 12.1287168,23.4340654 L12.2403557,23.44056 L14.6955557,23.5422 L15.096434,23.5621611 C18.4477155,23.7557742 20.3653845,24.5443266 20.7794554,24.7318467 L20.8647957,24.772 L20.3447157,25.8148 L20.2226455,25.7601937 L19.945655,25.6501406 C19.2335871,25.3837382 17.5762862,24.8732769 15.0329367,24.7256672 L14.6475957,24.70644 L11.9983557,24.59644 C10.0264781,24.514512 8.57648189,23.1783784 8.52672503,21.4394792 L8.52543573,21.33252 L2.34475573,19.84576 C1.30876863,19.6268955 0.513018785,20.182724 0.180821961,20.9709072 L0.128035726,21.10636 C-0.173861048,21.909431 0.0405668393,22.8188162 0.959143899,23.2826067 L12.9597557,29.06024 L13.3468748,29.2317764 C15.9809499,30.383782 17.0761492,30.518477 19.9112337,30.0407666 L20.3284357,29.9684 L30.9940357,28.07112 C31.1885834,28.0361908 31.349764,27.914657 31.3734099,27.6764106 L31.3763957,27.6144 L31.3763957,20.78164 C31.3763957,20.50224 31.2241557,20.30996 31.0331957,20.21096 L30.6680676,20.025704 L30.3094912,19.8514384 C28.8397015,19.1518323 26.3105744,18.1253455 23.9641557,18.02724 C21.1432453,17.9095224 19.7113422,19.5467629 15.6978209,19.4483063 Z" id="Path" fill="#0797E1"></path>
                    <path d="M15.3999096,-1.23812072e-12 C20.0173484,-1.23812072e-12 23.7604357,3.74320506 23.7604357,8.36026305 C23.7604357,12.977321 20.0162963,16.72 15.3999096,16.72 C10.783523,16.72 7.04096181,12.977321 7.04043573,8.36026305 C7.04043573,3.74267896 10.783523,-1.23812072e-12 15.3999096,-1.23812072e-12 Z M15.8017531,3.52 L14.99917,3.52 C14.9176693,3.52 14.8682388,3.55274996 14.8517266,3.61721019 L14.845528,3.67148479 L14.845528,4.55115251 C13.5078895,4.80782379 12.8900082,5.80161275 12.8900082,6.73529515 C12.8900082,7.8153304 13.5873271,8.59525991 14.9632352,9.05565639 L15.1644077,9.11925152 C16.2908401,9.45592952 16.2908401,9.82672205 16.2908401,9.98470485 C16.2908401,10.5589662 15.644798,10.6446587 15.2596575,10.6446587 C14.5854546,10.6446587 13.8847474,10.3749914 13.5944426,10.2478741 C13.5321575,10.2212323 13.4643065,10.225521 13.4161217,10.2740481 L13.3840648,10.3189461 L12.780678,11.4609708 C12.7342955,11.5499123 12.7719813,11.6262639 12.8494235,11.6607846 L13.0266465,11.7376652 L13.2936816,11.842339 C13.6439276,11.9715892 14.1216257,12.1171572 14.6426094,12.1883277 L14.845528,12.2118968 L14.845528,13.0489213 C14.845528,13.1288468 14.8786583,13.1775819 14.9440709,13.1938789 L14.99917,13.2 L15.8017531,13.2 C15.8835851,13.2 15.9330818,13.16725 15.9496073,13.1029977 L15.9558093,13.0489213 L15.9558093,12.1688475 C17.2934477,11.9121762 17.9105008,10.9179811 17.9105008,9.98470485 C17.9105008,8.9046696 17.2139366,8.12474009 15.8380971,7.66399039 L15.6369295,7.60034235 C14.510083,7.26407048 14.510083,6.89368408 14.510083,6.73529515 C14.510083,6.1614399 15.155711,6.07574743 15.5416797,6.07574743 C16.2162968,6.07574743 16.9174181,6.34582085 17.2085512,6.47293812 C17.2711676,6.49957995 17.3385547,6.49529126 17.3867528,6.44676414 L17.418929,6.40186616 L18.019831,5.25943528 C18.0666276,5.17008769 18.0293559,5.09414223 17.9519137,5.05921544 L17.774529,4.9823348 L17.5073832,4.87766096 C17.1570504,4.74841079 16.6794137,4.60284279 16.1586396,4.53167235 L15.9558093,4.50810321 L15.9558093,3.67148479 C15.9558093,3.5912344 15.9226789,3.54243437 15.8570543,3.52612437 L15.8017531,3.52 Z" id="Combined-Shape" fill="#FFBA40"></path>
                </g>
            </g>
        </g>
    </g>
</svg>