<?xml version="1.0" encoding="UTF-8"?>
<svg width="18px" height="18px" viewBox="0 0 18 18" version="1.1" xmlns="http://www.w3.org/2000/svg" xmlns:xlink="http://www.w3.org/1999/xlink">
    <!-- Generator: Sketch 59.1 (86144) - https://sketch.com -->
    <title>open-new-tab-icon</title>
    <desc>Created with Sketch.</desc>
    <g id="Landings" stroke="none" stroke-width="1" fill="none" fill-rule="evenodd">
        <g id="data_corruption_landing-3" transform="translate(-956.000000, -819.000000)" fill="#0797E1">
            <path d="M962.900207,822 C963.245385,822 963.525207,822.279822 963.525207,822.625 C963.525207,822.970178 963.245385,823.25 962.900207,823.25 L957.25,823.25 L957.25,835.75 L969.75,835.75 L969.75,830.097646 C969.75,829.752468 970.029822,829.472646 970.375,829.472646 C970.720178,829.472646 971,829.752468 971,830.097646 L971,836.375 C971,836.720178 970.720178,837 970.375,837 L956.625,837 C956.279822,837 956,836.720178 956,836.375 L956,822.625 C956,822.279822 956.279822,822 956.625,822 L962.900207,822 Z M974,819 L972,828.144802 L969.333333,825.331017 L965.333333,829 L964,827.593107 L968,823.924124 L965.333333,821.110339 L974,819 Z" id="open-new-tab-icon"></path>
        </g>
    </g>
</svg>