<?xml version="1.0" encoding="UTF-8"?>
<svg width="90px" height="90px" viewBox="0 0 90 90" version="1.1" xmlns="http://www.w3.org/2000/svg" xmlns:xlink="http://www.w3.org/1999/xlink">
    <title>checkmark</title>
    <g id="New-Red" stroke="none" stroke-width="1" fill="none" fill-rule="evenodd">
        <path d="M63.23,0 C63.4952165,0 63.7495704,0.10535684 63.9371068,0.292893219 L63.9371068,0.292893219 L89.7071068,26.0628932 C89.8946432,26.2504296 90,26.5047835 90,26.77 L90,26.77 L90,63.23 C90,63.4952165 89.8946432,63.7495704 89.7071068,63.9371068 L89.7071068,63.9371068 L63.9371068,89.7071068 C63.7495704,89.8946432 63.4952165,90 63.23,90 L63.23,90 L26.77,90 C26.5047835,90 26.2504296,89.8946432 26.0628932,89.7071068 L26.0628932,89.7071068 L0.292893219,63.9371068 C0.10535684,63.7495704 0,63.4952165 0,63.23 L0,63.23 L0,26.77 C0,26.5047835 0.10535684,26.2504296 0.292893219,26.0628932 L0.292893219,26.0628932 L26.0628932,0.292893219 C26.2504296,0.10535684 26.5047835,0 26.77,0 L26.77,0 Z M62.815,2 L27.184,2 L2,27.184 L2,62.815 L27.185,88 L62.814,88 L88,62.814 L88,27.185 L62.815,2 Z M58.7819601,30.3638533 C59.0706197,30.1369197 59.4604303,30.0864346 59.7973775,30.2323448 L59.7973775,30.2323448 L66.5173775,33.1423448 C67.1714964,33.4256016 67.3276792,34.2827486 66.8155085,34.7785178 L66.8155085,34.7785178 L39.3355085,61.3785178 C38.94324,61.7582247 38.318932,61.7531456 37.9328932,61.3671068 L37.9328932,61.3671068 L23.1728932,46.6071068 C22.7493137,46.1835273 22.7906394,45.4851112 23.2612152,45.1144395 L23.2612152,45.1144395 L28.3012152,41.1444395 C28.6183023,40.8946705 29.0544599,40.8600237 29.407003,41.0565997 L29.407003,41.0565997 L38.635,46.201 Z M59.55,32.304 L39.3480399,48.1861467 C39.0309874,48.4354019 38.5952388,48.4698083 38.242997,48.2734003 L38.242997,48.2734003 L29.014,43.128 L25.383,45.988 L38.651,59.256 L64.348,34.382 L59.55,32.304 Z" id="checkmark" fill="#ED1E45" fill-rule="nonzero"></path>
    </g>
</svg>